<svg width="100%" height="100%" viewBox="0 0 60 60" fill="none" xmlns="http://www.w3.org/2000/svg">
  <path
    d="M44.3051 6.88488C43.8422 7.65656 43.6753 8.56594 44.044 9.31781C45.0313 9.96164 50.0168 11.1696 49.5853 12.8068C49.4934 13.0765 49.4579 13.2217 49.4078 13.419C48.5406 12.6264 46.7755 12.2413 46.138 12.3586C45.5718 12.4574 44.9988 12.716 44.4458 12.7392C43.7443 12.7355 43.1169 12.5616 42.5796 12.2407C42.9593 13.2887 44.3198 14.0614 45.1635 13.9296C46.4898 13.665 47.9215 14.3659 48.8876 14.7112C48.2952 16.3355 46.3078 15.5707 46.3078 15.5707L32.0183 12.2871L29.6706 10.5918L27.6386 12.6683L38.0618 16.0821L23.9966 16.3957L20.4919 14.9325L15.7141 17.7001L37.1583 19.2577L30.5709 26.2216H42.1983C44.4648 24.3764 49.5821 20.2216 49.6567 20.2693C51.1645 23.7818 53.5539 22.4986 55.3772 20.451C55.9063 19.857 56.487 21.8996 56.7859 18.5742C56.8609 18.457 56.9285 18.3386 56.9936 18.2191C54.8809 17.3214 51.3006 18.8909 53.265 16.1107C53.8668 15.2597 55.6997 15.4901 57.5858 16.5759C57.654 14.7874 57.4621 11.6077 55.7713 10.9052C54.0311 10.1823 51.7841 10.263 50.9296 11.2195C49.764 9.24141 46.292 8.98477 44.917 8.78625C44.5124 8.15004 44.3829 7.55824 44.305 6.88477L44.3051 6.88488ZM22.2354 13.8266L21.7012 14.2993L23.5924 15.1024L24.8641 13.8266H22.2354ZM54.6469 16.6806C55.4135 17.244 55.4684 17.377 55.982 17.3954C56.1691 17.2758 56.582 16.8548 56.1996 16.7661L54.9059 16.508C54.7723 16.4841 54.6691 16.5837 54.6469 16.6806ZM17.3339 18.7937L16.6366 19.4106H19.2652L19.9627 18.7937H17.3339ZM12.7302 20.3872L11.3239 22.1869H13.182L13.8219 21.4352H18.8132L17.883 22.2485H19.7525L21.6275 20.449L12.7302 20.3872ZM14.5658 22.2544L2.34375 36.2725L5.04223 35.7432L16.599 22.2545L14.5658 22.2544ZM29.4198 27.4393L14.0188 43.7218L12.0621 44.2216C12.0621 44.2216 10.5506 47.7154 9.855 51.8457C10.7525 52.3277 11.8929 50.9059 11.8929 50.9059C11.8929 50.9059 11.764 52.4399 12.671 52.0477C14.323 48.6997 16.1707 45.2217 16.1707 45.2217L34.888 30.9393L37.3482 31.5936L40.6011 32.4592L33.2702 39.3412L31.9533 37.9174C31.9533 37.9174 27.9315 42.3786 26.4097 45.678C26.8937 46.2335 28.7921 44.7827 28.7921 44.7827C28.7921 44.7827 28.163 45.9095 29.0186 45.8737C31.1054 43.9174 32.4969 42.3785 32.4969 42.3785L48.0618 30.8305L42.4098 27.4393H29.4198Z"
    fill="#fff" />
</svg>